…
``` r
# sample draws of the home_team coefficient for home points
home_pts_for <- home_pts_model %>%
  spread_draws(b_Intercept, r_home_team[home_team,]) %>%
  # get deviation from mean and exponent to bring back to points
  median_qi(home_team_mean = exp(b_Intercept + r_home_team)) %>%
  arrange(desc(home_team_mean))

home_pts_for
```

    ## # A tibble: 32 x 7
    ##    home_team home_team_mean .lower .upper .width .point .interval
    ##    <chr>              <dbl>  <dbl>  <dbl>  <dbl> <chr>  <chr>    
    ##  1 SF                  31.0   27.0   35.5   0.95 median qi       
    ##  2 DAL                 29.2   25.3   33.5   0.95 median qi       
    ##  3 KC                  28.8   25.1   33.1   0.95 median qi       
    ##  4 BAL                 27.4   23.7   31.5   0.95 median qi       
    ##  5 SEA                 26.1   22.4   30.4   0.95 median qi       
    ##  6 NO                  25.5   22.1   29.4   0.95 median qi       
    ##  7 TEN                 24.8   21.3   28.7   0.95 median qi       
    ##  8 CLE                 23.6   20.1   27.5   0.95 median qi       
    ##  9 DET                 23.5   20.1   27.4   0.95 median qi       
    ## 10 GB                  23.4   20.3   27.0   0.95 median qi       
    ## # … with 22 more rows
…
<img src="nfl_superbowl_prediction_files/figure-gfm/unnamed-chunk-13-1.png" width="50%" style="display: block; margin: auto;" />

Below is the posterior distribution of each team along with the varying
intercept for points against when they are the away team. In other
words, how effective is the defense on the road?

``` r
home_pts_model %>%
  spread_draws(b_Intercept, r_away_team[away_team,]) %>%
  # get deviation from mean and exponent to bring back to points
  median_qi(away_team_mean = exp(b_Intercept + r_away_team)) %>%
  arrange(away_team_mean)
```

    ## # A tibble: 32 x 7
    ##    away_team away_team_mean .lower .upper .width .point .interval
    ##    <chr>              <dbl>  <dbl>  <dbl>  <dbl> <chr>  <chr>    
    ##  1 NE                  15.5   12.8   18.5   0.95 median qi       
    ##  2 BUF                 16.6   14.0   19.4   0.95 median qi       
    ##  3 BAL                 17.0   14.3   20.1   0.95 median qi       
    ##  4 TEN                 17.7   15.2   20.7   0.95 median qi       
    ##  5 SF                  18.8   15.9   21.9   0.95 median qi       
    ##  6 KC                  19.3   16.4   22.6   0.95 median qi       
    ##  7 GB                  19.3   16.5   22.4   0.95 median qi       
    ##  8 LAC                 19.6   16.6   22.9   0.95 median qi       
    ##  9 MIN                 19.7   17.0   22.7   0.95 median qi       
    ## 10 CHI                 20.0   16.9   23.4   0.95 median qi       
    ## # … with 22 more rows
…
### 3.1.4 Team Coefficients

Below is the posterior distribution of each team along with the varying
intercept for points for when they are the away team. In other words,
how effective is the offense on the road?

``` r
away_pts_model %>%
  spread_draws(b_Intercept, r_away_team[away_team,]) %>%
  # get deviation from mean and exponent to bring back to points
  median_qi(away_team_mean = exp(b_Intercept + r_away_team)) %>%
  arrange(desc(away_team_mean))
```

    ## # A tibble: 32 x 7
    ##    away_team away_team_mean .lower .upper .width .point .interval
    ##    <chr>              <dbl>  <dbl>  <dbl>  <dbl> <chr>  <chr>    
    ##  1 BAL                 33.8   29.3   38.8   0.95 median qi       
    ##  2 KC                  29.7   25.6   34.3   0.95 median qi       
    ##  3 TB                  29.6   25.5   34.1   0.95 median qi       
    ##  4 NO                  27.3   23.5   31.6   0.95 median qi       
    ##  5 LA                  25.7   22.1   29.9   0.95 median qi       
    ##  6 PHI                 25.4   21.8   29.4   0.95 median qi       
    ##  7 TEN                 25.2   21.8   28.9   0.95 median qi       
    ##  8 NE                  24.9   21.4   29.0   0.95 median qi       
    ##  9 ATL                 24.9   21.4   28.9   0.95 median qi       
    ## 10 MIN                 24.6   21.2   28.3   0.95 median qi       
    ## # … with 22 more rows
…
<img src="nfl_superbowl_prediction_files/figure-gfm/unnamed-chunk-20-1.png" width="50%" style="display: block; margin: auto;" />

Below is the posterior distribution of each team along with the varying
intercept for points against when they are the away team. In other
words, how effective is the defense on the road?

``` r
away_pts_model %>%
  spread_draws(b_Intercept, r_home_team[home_team,]) %>%
  # get deviation from mean and exponent to bring back to points
  median_qi(home_team_mean = exp(b_Intercept + r_home_team)) %>%
  arrange(home_team_mean)
```

    ## # A tibble: 32 x 7
    ##    home_team home_team_mean .lower .upper .width .point .interval
    ##    <chr>              <dbl>  <dbl>  <dbl>  <dbl> <chr>  <chr>    
    ##  1 NE                  16.8   14.1   19.9   0.95 median qi       
    ##  2 PIT                 17.3   14.5   20.5   0.95 median qi       
    ##  3 CHI                 17.6   14.7   20.7   0.95 median qi       
    ##  4 BUF                 17.9   15.0   21.3   0.95 median qi       
    ##  5 MIN                 18.1   15.1   21.5   0.95 median qi       
    ##  6 PHI                 18.1   15.3   21.4   0.95 median qi       
    ##  7 DEN                 18.6   15.6   21.9   0.95 median qi       
    ##  8 SF                  19.0   16.1   22.2   0.95 median qi       
    ##  9 DAL                 19.8   16.8   23.3   0.95 median qi       
    ## 10 IND                 20.4   17.2   24.0   0.95 median qi       
    ## # … with 22 more rows
…
<img src="nfl_superbowl_prediction_files/figure-gfm/unnamed-chunk-32-1.png" width="70%" style="display: block; margin: auto;" />

We can also take the approach of looking at the most common game
outcomes. Using this approach, one could predict a 27-26 outcome for SF
over KC. Each of these scores indicate a close game with less than one
score seperating both teams.

``` r
scores_tbl %>%
  count(kc, sf) %>%
  arrange(desc(n))
```

    ## # A tibble: 1,104 x 3
    ##       kc    sf     n
    ##    <int> <int> <int>
    ##  1    26    27    56
    ##  2    25    25    50
    ##  3    24    25    47
    ##  4    26    26    47
    ##  5    25    24    46
    ##  6    23    27    44
    ##  7    24    23    42
    ##  8    25    26    42
    ##  9    26    23    42
    ## 10    27    21    42
    ## # … with 1,094 more rows
…
